{
  "images" : [
    {
      "idiom" : "universal",
      "filename" : "icons8-folder-50.png",
      "scale" : "1x"
    },
    {
      "idiom" : "universal",
      "filename" : "icons8-folder-51.png",
      "scale" : "2x"
    },
    {
      "idiom" : "universal",
      "filename" : "icons8-folder-52.png",
      "scale" : "3x"
    }
  ],
  "info" : {
    "version" : 1,
    "author" : "xcode"
  },
  "properties" : {
    "compression-type" : "gpu-optimized-best"
  }
}